{
  "root": "apps/puzzle/2021/03",
  "sourceRoot": "apps/puzzle/2021/03/src",
  "projectType": "application",
  "targets": {
    "build": {
      "executor": "@nrwl/node:build",
      "outputs": ["{options.outputPath}"],
      "options": {
        "outputPath": "dist/apps/puzzle/2021/03",
        "main": "apps/puzzle/2021/03/src/main.ts",
        "tsConfig": "apps/puzzle/2021/03/tsconfig.app.json",
        "assets": ["apps/puzzle/2021/03/src/assets"]
      }
    },
    "serve": {
      "executor": "@nrwl/node:execute",
      "options": {
        "buildTarget": "puzzle-2021-03:build"
      }
    },
    "lint": {
      "executor": "@nrwl/linter:eslint",
      "outputs": ["{options.outputFile}"],
      "options": {
        "lintFilePatterns": ["apps/puzzle/2021/03/**/*.{ts,tsx,js,jsx}"]
      }
    },
    "test": {
      "executor": "@nrwl/jest:jest",
      "outputs": ["coverage/apps/puzzle/2021/03"],
      "options": {
        "jestConfig": "apps/puzzle/2021/03/jest.config.js",
        "passWithNoTests": true
      }
    }
  },
  "tags": ["scope:puzzle"]
}
