{
  "root": "libs/puzzle/util/core",
  "sourceRoot": "libs/puzzle/util/core/src",
  "projectType": "library",
  "tags": ["scope:shared"],
  "targets": {
    "lint": {
      "executor": "@nrwl/linter:eslint",
      "outputs": ["{options.outputFile}"],
      "options": {
        "lintFilePatterns": ["libs/puzzle/util/core/**/*.{ts,tsx,js,jsx}"]
      }
    },
    "test": {
      "executor": "@nrwl/jest:jest",
      "outputs": ["coverage/libs/puzzle/util/core"],
      "options": {
        "jestConfig": "libs/puzzle/util/core/jest.config.js",
        "passWithNoTests": true
      }
    }
  }
}
